/* XPM */
static char * C:\proj\asnake\genericglass_xpm[] = {
"20 20 3 1",
" 	c None",
".	c #E3F5E3",
"+	c #D3D3D3",
"....................",
"....................",
"....................",
"....................",
"....................",
"....................",
"....................",
"....................",
"....................",
"....................",
"....................",
"....................",
"....................",
"...................+",
"...................+",
"...................+",
"...................+",
"...................+",
"...................+",
"..............++++++"};
