/* XPM */
static char * lis _xpm[] = {
"20 20 4 1",
" 	c None",
".	c #FF9E00",
"+	c #000000",
"@	c #FFFFFF",
"    .       .       ",
"   ...     ...      ",
"  .............     ",
"  ..+.......+..     ",
"   ...........      ",
"    .........       ",
"     .......        ",
"      ......        ",
"       ... .        ",
"        @  .......  ",
"          .........@",
"          ........@@",
"          .........@",
"          .......   ",
"          ... ...   ",
"          ... ...   ",
"          ... ...   ",
"          ... ...   ",
"          .@. .@.   ",
"          @@@ @@@   "};
