/* XPM */
static char * C:\proj\asnake\snakeright_xpm[] = {
"20 20 5 1",
" 	c None",
".	c #000000",
"+	c #54D954",
"@	c #FFFFFF",
"#	c #ED3131",
"                    ",
"  ................  ",
" .................. ",
" ..++++++++++++++.. ",
" ..+++++++++....+.. ",
" ..+++++++++.@@.+.. ",
" ..+++++++++.@..+.. ",
" ..+++++++++....+.. ",
" ..++++++++++++++.. ",
" ..+++++++++....... ",
" ..++++++++++.###   ",
" ..+++++++++++.###  ",
" ..++++++++++++.### ",
" ..+++++++++++++.###",
" ..++++++++++++++.##",
" ..++++++++++++++.. ",
" ..++++++++++++++.. ",
" .................. ",
"  ................  ",
"                    "};
